-0.054402111088937 -0.054402111088937
0.0784669417987515 0.078466941798736
0.0779421936285624 0.0779421936285578
-0.0394958449844703 -0.0394958449844571
-0.105589285117692 -0.105589285117678
-0.0555345116214522 -0.0555345116214529
0.0445013223340943 0.0445013223340796
0.113386230655775 0.113386230655756
0.125578023649568 0.125578023649555
0.100096409548491 0.100096409548487
0.0646051544925642 0.0646051544925704
0.0355744148858943 0.0355744148859109
0.0172159997449927 0.0172159997450245
0.00746558447658752 0.00746558447665048
0.00294107834179355 0.00294107834193177
0.00106354271461378 0.00106354271495165
0.000355904073509173 0.000355904074418359
0.000110940727966489 0.000110940730628928
3.23884743735374e-05 3.23884827828895e-05
8.8966272155996e-06 8.89665566776299e-06
2.30837176730107e-06 2.30847432138622e-06
5.67697030334798e-07 5.68089049920502e-07
1.32725463138557e-07 1.3430859327194e-07
2.95675537887088e-08 1.0
